\select@language {spanish}
\contentsline {chapter}{\numberline {1}Marco Te\IeC {\'o}rico}{3}
\contentsline {paragraph}{ Dependiendo de el autor existen diferentes definiciones de un \textit {Objetos de Aprendizaje }, en este cap\IeC {\'\i }tulo se estudiar\IeC {\'a}n dichas definiciones y llegando a obtener una definici\IeC {\'o}n adecuada para el contexto de este trabajo. As\IeC {\'\i } mismo se describira la \textit {Taxonom\IeC {\'\i }a de Wiley} donde se enmarcan los dos tipos de \textit {Objetos de Aprendizaje }a tomar en cuenta en este estudio como lo son los \textit {Objetos de Aprendizaje Fundamental }y los \textit {Objetos de Aprendizaje de Contenido Abierto }. A continuaci\IeC {\'o}n se describir\IeC {\'a} lo que son las \textit {simulaciones} por computador, donde encajan dentro de la \textit {Taxonom\IeC {\'\i }a de Wiley}. Por \IeC {\'u}ltimo se hablar\IeC {\'a} sobre los \textit {Manejadores de Contenido} y como podemos aprovechar este paradigma para desarrollar un generador de \textit {Objetos de Aprendizaje }. }{3}
\contentsline {section}{\numberline {1.1}\textit {Objetos de Aprendizaje }}{3}
\contentsline {paragraph}{ \cite {Solvig} presenta tres definiciones de \textit {Objetos de Aprendizaje }}{3}
