This is BibTeX, Version 0.99dThe top-level auxiliary file: template_Report.aux
I found no \bibdata command---while reading file template_Report.aux
I found no \bibstyle command---while reading file template_Report.aux
(There were 2 error messages)
